{
    "wallpaper": "/home",
    "alpha": "100",

    "special": {
        "background": "#EEEEEE",
        "foreground": "#DDDDDD",
        "cursor": "#DDDDDD"
    },
    "colors": {
        "color0": "#000000",
        "color1": "#010000",
        "color2": "#020000",
        "color3": "#030000",
        "color4": "#040000",
        "color5": "#050000",
        "color6": "#060000",
        "color7": "#070000",
        "color8": "#080000",
        "color9": "#090000",
        "color10": "#0A0000",
        "color11": "#0B0000",
        "color12": "#0C0000",
        "color13": "#0D0000",
        "color14": "#0E0000",
        "color15": "#0F0000"
    }
}
